[gd_scene load_steps=4 format=3 uid="uid://eqb1q5aq1bro"]

[ext_resource type="Texture2D" uid="uid://b7rhtttevhxtj" path="res://characters/ground_shadow.png" id="1_7pcqc"]
[ext_resource type="Texture2D" uid="uid://caqfk2xng5v5u" path="res://trees/pine_tree.png" id="1_hvp4q"]

[sub_resource type="CircleShape2D" id="CircleShape2D_kpe50"]
radius = 22.0227

[node name="Tree" type="StaticBody2D"]

[node name="GroundShadow" type="Sprite2D" parent="."]
modulate = Color(0.67451, 0.858824, 0.917647, 1)
position = Vector2(1, -4)
texture = ExtResource("1_7pcqc")

[node name="PineTree" type="Sprite2D" parent="."]
position = Vector2(-1, -63)
texture = ExtResource("1_hvp4q")

[node name="CollisionShape2D" type="CollisionShape2D" parent="."]
shape = SubResource("CircleShape2D_kpe50")
